<svg width="306" height="37" viewBox="0 0 306 37" fill="none" xmlns="http://www.w3.org/2000/svg">
    <path d="M66.3074 11.7244H64.2798V24.1487H74.1985V22.362H66.3074V11.7244Z" fill="#16109E"/>
    <path d="M87.816 19.7507C87.816 20.7952 87.4872 21.5374 86.857 21.9772C86.2268 22.417 85.1034 22.6094 83.4869 22.6094C81.8703 22.6094 80.7743 22.3895 80.1167 21.9772C79.4591 21.5649 79.1577 20.8227 79.1577 19.7507V11.7244H77.1301V19.7507C77.1301 21.4824 77.6233 22.6918 78.6097 23.379C79.5961 24.0662 81.2127 24.3686 83.5143 24.3686C85.8158 24.3686 87.4324 24.0387 88.4188 23.379C89.4052 22.7193 89.8984 21.5099 89.8984 19.7507V11.7244H87.8708V19.7507H87.816Z" fill="#16109E"/>
    <path d="M104.694 18.2389C104.338 17.964 103.927 17.7716 103.516 17.6341C103.05 17.4692 102.585 17.3318 102.119 17.2493C101.708 17.1669 101.16 17.0569 100.447 16.9195L99.0226 16.6996C98.0088 16.5896 97.0224 16.3697 96.036 16.0399C95.5702 15.82 95.351 15.4077 95.351 14.8304V14.638C95.351 13.566 96.4196 13.2087 99.461 13.2087C101.023 13.2087 102.064 13.3186 102.639 13.5935C103.215 13.8684 103.489 14.3357 103.489 15.0503V15.1603H105.434V14.5006C105.461 13.5385 104.941 12.6589 104.064 12.2191C103.16 11.7243 101.626 11.477 99.461 11.477C95.214 11.477 93.3234 12.439 93.3234 14.693V14.9953C93.3234 16.0399 93.707 16.7545 94.4194 17.2218C95.1318 17.6891 96.4196 17.9915 98.2006 18.2938L99.1322 18.4588C100.091 18.5962 101.05 18.7886 102.009 19.036C103.133 19.3659 103.681 19.8881 103.681 20.5478V20.7677C103.681 22.0321 102.448 22.5544 99.3788 22.5544C96.2278 22.5544 94.9948 21.9772 94.9948 20.5478V20.163H92.9946V20.9876C92.9946 23.2416 95.1044 24.3411 99.324 24.3411C103.708 24.3411 105.681 23.1591 105.681 20.8777V20.3829C105.708 19.5857 105.352 18.7611 104.694 18.2389Z" fill="#16109E"/>
    <path d="M120.422 12.4115C119.298 11.7244 117.846 11.5045 115.435 11.5045C113.024 11.5045 111.572 11.7244 110.421 12.4115C109.27 13.0987 108.859 14.2532 108.859 16.1223V19.7782C108.859 21.6473 109.298 22.8018 110.421 23.489C111.544 24.1762 113.024 24.3961 115.435 24.3961C117.846 24.3961 119.298 24.1762 120.422 23.489C121.545 22.8018 121.984 21.6473 121.984 19.7782V16.1223C121.984 14.2532 121.545 13.0987 120.422 12.4115ZM119.956 19.7782C119.956 20.9052 119.627 21.6473 118.997 22.0046C118.367 22.362 117.189 22.5819 115.435 22.5819C113.681 22.5819 112.531 22.3895 111.873 22.0046C111.216 21.6198 110.914 20.8777 110.914 19.7782V16.1223C110.914 14.9679 111.243 14.2257 111.846 13.8409C112.448 13.4561 113.654 13.2637 115.408 13.2637C117.161 13.2637 118.339 13.4561 118.97 13.8409C119.6 14.2257 119.929 14.9679 119.929 16.1223L119.956 19.7782Z" fill="#16109E"/>
    <path d="M137.382 11.7244H130.34V24.1212H137.382C140.917 24.1212 142.725 22.8293 142.725 19.7782V15.9299C142.698 12.9888 140.971 11.7244 137.382 11.7244ZM140.697 19.7232C140.697 21.7023 139.766 22.362 137.382 22.362H132.341V13.511H137.382C139.738 13.511 140.697 14.2257 140.697 16.0399V19.7232Z" fill="#16109E"/>
    <path d="M147.904 11.7244H145.904V24.1212H147.904V11.7244Z" fill="#16109E"/>
    <path d="M157.767 19.091H162.014V20.4104C162.069 21.0976 161.686 21.7573 161.083 22.0871C160.453 22.417 159.302 22.5544 157.658 22.5544C155.904 22.5544 154.726 22.362 154.096 21.9772C153.466 21.5923 153.164 20.8227 153.164 19.6682V16.1498C153.164 14.9679 153.493 14.1982 154.123 13.8409C154.753 13.4835 156.014 13.2637 157.85 13.2637C160.727 13.2637 161.932 13.6485 161.932 15.1328V15.6001H163.878V15.0778C163.878 13.6485 163.412 12.7139 162.508 12.2191C161.603 11.7244 160.042 11.5045 157.822 11.5045C155.329 11.5045 153.849 11.7244 152.699 12.4115C151.548 13.0987 151.137 14.2532 151.137 16.1223V19.7782C151.137 21.5649 151.63 22.8018 152.589 23.434C153.548 24.0662 155.274 24.3961 157.685 24.3961C159.959 24.3961 161.576 24.0937 162.562 23.4615C163.549 22.8293 164.015 21.8397 164.015 20.4928V17.4143H157.795V19.091H157.767Z" fill="#16109E"/>
    <path d="M169.166 11.7244H167.166V24.1212H169.166V11.7244Z" fill="#16109E"/>
    <path d="M171.851 13.4836H176.783V24.1487H178.783V13.4836H183.688V11.7244H171.851V13.4836Z" fill="#16109E"/>
    <path d="M189.661 11.7244L183.934 24.1212H186.208L187.469 21.2075H195.059L196.319 24.1212H198.566L192.867 11.7244H189.661ZM188.236 19.5033L190.866 13.511H191.661L194.291 19.5033H188.236Z" fill="#16109E"/>
    <path d="M203.279 11.7244H201.251V24.1487H211.17V22.362H203.279V11.7244Z" fill="#16109E"/>
    <path d="M224.458 11.7244L218.732 24.1212H220.979L222.239 21.2075H229.829L231.117 24.1212H233.363L227.664 11.7244H224.458ZM223.006 19.5033L225.637 13.511H226.431L229.062 19.5033H223.006Z" fill="#16109E"/>
    <path d="M247.09 18.2389C246.734 17.964 246.323 17.7716 245.912 17.6341C245.447 17.4692 244.981 17.3318 244.515 17.2493C244.104 17.1669 243.556 17.0569 242.844 16.9195L241.419 16.6996C240.405 16.5896 239.419 16.3697 238.432 16.0399C237.966 15.82 237.747 15.4077 237.747 14.8304V14.638C237.747 13.566 238.816 13.2087 241.857 13.2087C243.419 13.2087 244.46 13.3186 245.036 13.5935C245.611 13.8684 245.885 14.3357 245.885 15.0503V15.1603H247.83V14.5006C247.858 13.5385 247.337 12.6589 246.46 12.2191C245.556 11.7243 244.022 11.477 241.857 11.477C237.61 11.477 235.72 12.439 235.72 14.693V14.9953C235.72 16.0399 236.103 16.7545 236.816 17.2218C237.528 17.6891 238.816 17.9915 240.597 18.2938L241.528 18.4588C242.487 18.5962 243.446 18.7886 244.405 19.036C245.529 19.3659 246.077 19.8881 246.077 20.5478V20.7677C246.077 22.0321 244.844 22.5544 241.775 22.5544C238.624 22.5544 237.391 21.9772 237.391 20.5478V20.163H235.418V20.9876C235.418 23.2416 237.528 24.3411 241.748 24.3411C246.131 24.3411 248.104 23.1591 248.104 20.8777V20.3829C248.104 19.5857 247.748 18.7611 247.09 18.2389Z" fill="#16109E"/>
    <path d="M262.434 18.2389C262.078 17.964 261.667 17.7716 261.256 17.6341C260.79 17.4692 260.325 17.3318 259.859 17.2493C259.448 17.1669 258.873 17.0569 258.188 16.9195L256.763 16.6996C255.749 16.5896 254.735 16.3697 253.776 16.0399C253.31 15.82 253.091 15.4077 253.091 14.8304V14.638C253.091 13.566 254.16 13.2087 257.201 13.2087C258.763 13.2087 259.804 13.3186 260.379 13.5935C260.955 13.8684 261.229 14.3357 261.229 15.0503V15.1603H263.174V14.5006C263.202 13.5385 262.681 12.6589 261.804 12.2191C260.9 11.7243 259.366 11.477 257.201 11.477C252.954 11.477 251.064 12.439 251.064 14.693V14.9953C251.064 16.0399 251.42 16.7545 252.16 17.2218C252.899 17.6891 254.16 17.9915 255.941 18.2938L256.872 18.4588C257.831 18.5962 258.79 18.7886 259.749 19.036C260.873 19.3659 261.421 19.8881 261.421 20.5478V20.7677C261.421 22.0321 260.188 22.5544 257.119 22.5544C253.968 22.5544 252.735 21.9772 252.735 20.5478V20.163H250.762V20.9876C250.762 23.2416 252.872 24.3411 257.092 24.3411C261.475 24.3411 263.448 23.1591 263.448 20.8777V20.3829C263.476 19.5857 263.092 18.7611 262.434 18.2389Z" fill="#16109E"/>
    <path d="M268.627 18.5962H276.217V16.8645H268.627V13.4836H276.874V11.7244H266.627V24.1487H277.203V22.362H268.627V18.5962Z" fill="#16109E"/>
    <path d="M279.313 13.4836H284.217V24.1487H286.217V13.4836H291.149V11.7244H279.313V13.4836Z" fill="#16109E"/>
    <path d="M304.986 18.2389C304.63 17.964 304.219 17.7716 303.808 17.6341C303.342 17.4692 302.876 17.3318 302.411 17.2493C302 17.1669 301.424 17.0569 300.739 16.9195L299.315 16.6996C298.301 16.5896 297.287 16.3697 296.328 16.0399C295.862 15.82 295.643 15.4077 295.643 14.8304V14.638C295.643 13.566 296.712 13.2087 299.753 13.2087C301.315 13.2087 302.356 13.3186 302.931 13.5935C303.507 13.8684 303.781 14.3357 303.781 15.0503V15.1603H305.726V14.5006C305.753 13.5385 305.233 12.6589 304.356 12.2191C303.452 11.7243 301.917 11.477 299.753 11.477C295.506 11.477 293.615 12.439 293.615 14.693V14.9953C293.615 16.0399 293.972 16.7545 294.711 17.2218C295.451 17.6891 296.712 17.9915 298.493 18.2938L299.424 18.4588C300.383 18.5962 301.342 18.7886 302.301 19.036C303.424 19.3659 303.972 19.8881 303.972 20.5478V20.7677C303.972 22.0321 302.739 22.5544 299.671 22.5544C296.52 22.5544 295.287 21.9772 295.287 20.5478V20.163H293.314V20.9876C293.314 23.2416 295.424 24.3411 299.671 24.3411C304.055 24.3411 306.027 23.1591 306.027 20.8777V20.3829C306.027 19.5857 305.644 18.7611 304.986 18.2389Z" fill="#16109E"/>
    <path d="M41.7572 13.2636C41.7298 8.26093 40.4968 5.12737 37.428 3.25822C34.3592 1.38908 30.3315 0.756866 23.7008 0.756866C17.07 0.756866 13.0423 1.3341 9.9187 3.25822C6.84993 5.15485 5.64434 8.34339 5.64434 13.4561V17.7716C3.80856 18.2938 1.91798 18.5412 0 18.4863V24.1487C1.91798 24.2036 3.80856 23.9562 5.64434 23.434V23.5164C5.64434 28.6291 6.84993 31.8176 9.9187 33.7143C13.0423 35.6109 17.07 36.2156 23.7008 36.2156C30.3315 36.2156 34.3592 35.6384 37.428 33.7143C40.5516 31.8176 41.7572 28.6291 41.7572 23.5164V18.926C43.6203 18.5962 45.5109 18.4588 47.4015 18.4863V12.8238C45.5109 12.7964 43.6203 12.9338 41.7572 13.2636ZM11.2887 13.4561C11.2887 10.2675 12.1655 8.23344 13.8643 7.21641C15.6178 6.19938 18.8784 5.64963 23.7008 5.64963C28.5231 5.64963 31.7837 6.19938 33.4824 7.21641C35.236 8.23344 36.1128 10.295 36.1128 13.4561V14.9129C35.921 14.9953 35.7292 15.0778 35.5374 15.1878C31.2357 17.3318 28.1943 18.5962 23.7008 18.5137V12.8513C20.1388 12.7414 15.2342 13.511 11.8367 15.1878L11.2887 15.4626V13.4561ZM36.1128 23.5164C36.1128 26.595 35.236 28.6291 33.4824 29.6736C31.7289 30.6907 28.4683 31.2404 23.7008 31.2404C18.9332 31.2404 15.6726 30.6907 13.9191 29.6736C12.1655 28.6566 11.2887 26.595 11.2887 23.5164V21.0976L11.8367 20.8227C15.2342 19.146 20.1388 18.3488 23.7008 18.4863V24.1487C28.2217 24.2311 31.2631 22.9667 35.5648 20.8227C35.7566 20.7402 35.9484 20.6578 36.1128 20.5478V23.5164Z" fill="#16109E"/>
</svg>
