<?xml version="1.0" encoding="UTF-8" standalone="no"?>
<!-- Generator: Adobe Illustrator 22.0.1, SVG Export Plug-In . SVG Version: 6.00 Build 0)  -->

<svg
   version="1.1"
   id="Santander"
   x="0px"
   y="0px"
   viewBox="0 0 238.2 41.5"
   xml:space="preserve"
   sodipodi:docname="Banco_Santander_Logotipo.svg"
   width="238.2"
   height="41.5"
   inkscape:version="1.1 (c68e22c387, 2021-05-23)"
   xmlns:inkscape="http://www.inkscape.org/namespaces/inkscape"
   xmlns:sodipodi="http://sodipodi.sourceforge.net/DTD/sodipodi-0.dtd"
   xmlns="http://www.w3.org/2000/svg"
   xmlns:svg="http://www.w3.org/2000/svg"
   xmlns:rdf="http://www.w3.org/1999/02/22-rdf-syntax-ns#"
   xmlns:cc="http://creativecommons.org/ns#"
   xmlns:dc="http://purl.org/dc/elements/1.1/"><defs
   id="defs13" /><sodipodi:namedview
   id="namedview11"
   pagecolor="#ffffff"
   bordercolor="#666666"
   borderopacity="1.0"
   inkscape:pageshadow="2"
   inkscape:pageopacity="0.0"
   inkscape:pagecheckerboard="0"
   showgrid="false"
   fit-margin-top="0"
   fit-margin-left="0"
   fit-margin-right="0"
   fit-margin-bottom="0"
   inkscape:zoom="2.3575884"
   inkscape:cx="105.82848"
   inkscape:cy="46.445767"
   inkscape:window-width="1920"
   inkscape:window-height="1017"
   inkscape:window-x="1912"
   inkscape:window-y="-8"
   inkscape:window-maximized="1"
   inkscape:current-layer="Santander" />
<style
   type="text/css"
   id="style2">
	.st6{fill:#EA1D25;}
</style>
<title
   id="title4">Santander</title>    
<g
   id="g8"
   transform="translate(0,-0.4)">
	<path
   class="st6"
   d="M 31.5,19.5 C 31.4,18 31,16.5 30.2,15.2 L 23.4,3.3 C 22.9,2.4 22.5,1.4 22.3,0.4 L 22,0.9 c -1.7,2.9 -1.7,6.6 0,9.5 l 5.5,9.5 c 1.7,2.9 1.7,6.6 0,9.5 l -0.3,0.5 c -0.2,-1 -0.6,-2 -1.1,-2.9 l -5,-8.7 -3.2,-5.6 C 17.4,11.8 17,10.8 16.8,9.8 l -0.3,0.5 c -1.7,2.9 -1.7,6.5 0,9.5 v 0 l 5.5,9.5 c 1.7,2.9 1.7,6.6 0,9.5 l -0.3,0.5 c -0.2,-1 -0.6,-2 -1.1,-2.9 L 13.7,24.5 C 12.8,22.9 12.4,21.1 12.4,19.3 5.1,21.2 0,25.3 0,30 0,36.6 9.8,41.9 21.9,41.9 34,41.9 43.8,36.6 43.8,30 43.9,25.5 38.9,21.4 31.5,19.5 Z m 20.7,20.3 c 0.1,-1.7 0.3,-2.8 0.8,-4.2 2.3,1.1 5.3,1.6 7.5,1.6 3.8,0 6,-1.2 6,-3.7 0,-2.4 -1.6,-3.5 -5.4,-5.2 L 59,27.5 c -3.9,-1.7 -6.5,-3.9 -6.5,-8.2 0,-4.7 3.3,-7.7 9.9,-7.7 2.7,0 5.2,0.4 7.5,1.2 -0.1,1.6 -0.4,2.9 -0.8,4.1 -2.2,-0.8 -4.9,-1.2 -6.8,-1.2 -3.6,0 -5.2,1.4 -5.2,3.6 0,2.1 1.6,3.4 4.5,4.6 l 2.2,0.9 c 5.2,2.2 7.4,4.6 7.4,8.6 0,4.7 -3.6,8 -10.6,8 -3.3,0 -6.1,-0.5 -8.4,-1.6 z M 93.3,20.1 v 20.6 h -4.2 l -0.2,-2.5 c -1.2,1.8 -2.9,3 -5.8,3 -5.4,0 -9.1,-4 -9.1,-10.9 0,-7.2 3.9,-11.4 11.5,-11.4 3,0.1 5.5,0.4 7.8,1.2 z M 88.8,36 V 23.1 c -0.9,-0.2 -2,-0.2 -3.3,-0.2 -4.7,0 -6.9,2.9 -6.9,7.5 0,4.2 1.7,7.2 5.7,7.2 1.9,-0.1 3.3,-0.7 4.5,-1.6 z m 27.7,-9.1 V 40.7 H 112 v -13 c 0,-3.3 -1.1,-4.8 -5.6,-4.8 -1.1,0 -2.3,0.1 -3.6,0.3 V 40.7 H 98.3 V 20.1 c 2.9,-0.7 6.1,-1.2 8.2,-1.2 7.6,0.1 10,3 10,8 z m 12.6,10.5 c 1.3,0 2.6,-0.2 3.5,-0.6 -0.1,1.2 -0.3,2.6 -0.5,3.8 -1.2,0.5 -2.6,0.7 -3.8,0.7 -4.4,0 -7.2,-2 -7.2,-7 V 12.6 c 1.4,-0.5 3.1,-0.7 4.5,-0.7 v 7.8 h 7.2 c -0.1,1.4 -0.2,2.7 -0.4,3.9 h -6.8 v 10.1 c 0,2.6 1.3,3.7 3.5,3.7 z m 24.3,-17.3 v 20.6 h -4.2 L 149,38.2 c -1.2,1.8 -2.9,3 -5.8,3 -5.4,0 -9.1,-4 -9.1,-10.9 0,-7.2 3.9,-11.4 11.5,-11.4 3,0.1 5.4,0.4 7.8,1.2 z M 148.8,36 V 23.1 c -0.9,-0.2 -2,-0.2 -3.3,-0.2 -4.7,0 -6.9,2.9 -6.9,7.5 0,4.2 1.7,7.2 5.7,7.2 1.9,-0.1 3.4,-0.7 4.5,-1.6 z m 27.8,-9.1 V 40.7 H 172 v -13 c 0,-3.3 -1.1,-4.8 -5.6,-4.8 -1.1,0 -2.3,0.1 -3.6,0.3 v 17.5 h -4.5 V 20.1 c 2.9,-0.7 6.1,-1.2 8.2,-1.2 7.6,0.1 10.1,3 10.1,8 z m 22.9,-15 v 28.8 h -4.2 l -0.2,-2.6 c -1.2,1.9 -2.9,3.1 -5.9,3.1 -5.4,0 -9.1,-4 -9.1,-10.9 0,-7.2 3.9,-11.4 11.5,-11.4 1.2,0 2.3,0.1 3.4,0.3 v -6.8 c 1.4,-0.4 3,-0.5 4.5,-0.5 z M 195,36 V 23.3 c -1.2,-0.2 -2.4,-0.4 -3.6,-0.4 -4.5,0 -6.6,2.8 -6.6,7.5 0,4.2 1.7,7.2 5.7,7.2 1.8,-0.1 3.3,-0.7 4.5,-1.6 z m 27.3,-4.1 h -14.5 c 0.6,3.7 2.7,5.4 6.8,5.4 2.5,0 5,-0.5 7.2,-1.6 -0.2,1.2 -0.4,2.8 -0.7,4.1 -2.1,0.9 -4.2,1.3 -6.7,1.3 -7.6,0 -11.2,-4.2 -11.2,-11.2 0,-6.1 2.8,-11 10,-11 6.5,0 9.3,4.2 9.3,9.4 0,1.4 0,2.4 -0.2,3.6 z M 207.8,28.1 H 218 c 0,-3.4 -1.8,-5.4 -4.9,-5.4 -3.3,0.1 -5,1.9 -5.3,5.4 z m 30.4,-8.9 c 0,1.4 -0.2,3 -0.4,3.9 -1.1,-0.1 -2.1,-0.2 -3.4,-0.2 -1.1,0 -2.2,0.1 -3.3,0.2 v 17.6 h -4.5 V 20.1 c 1.9,-0.7 5.2,-1.2 7.7,-1.2 1.3,0.1 2.9,0.1 3.9,0.3 z"
   id="path6" />
</g>
<metadata
   id="metadata830"><rdf:RDF><cc:Work
       rdf:about=""><dc:title>Santander</dc:title></cc:Work></rdf:RDF></metadata></svg>
