<?xml version="1.0" encoding="UTF-8" standalone="no"?>
<!-- Created with Inkscape (http://www.inkscape.org/) -->

<svg
   version="1.1"
   id="svg10246"
   width="267.60556"
   height="93.891998"
   viewBox="0 0 267.60556 93.892"
   sodipodi:docname="ua.svg"
   inkscape:version="1.2.2 (b0a8486541, 2022-12-01)"
   xmlns:inkscape="http://www.inkscape.org/namespaces/inkscape"
   xmlns:sodipodi="http://sodipodi.sourceforge.net/DTD/sodipodi-0.dtd"
   xmlns="http://www.w3.org/2000/svg"
   xmlns:svg="http://www.w3.org/2000/svg">
  <defs
     id="defs10250">
    <clipPath
       clipPathUnits="userSpaceOnUse"
       id="clipPath10262">
      <path
         d="M 0,129.837 H 266.991 V 0 H 0 Z"
         id="path10260" />
    </clipPath>
  </defs>
  <sodipodi:namedview
     id="namedview10248"
     pagecolor="#ffffff"
     bordercolor="#666666"
     borderopacity="1.0"
     inkscape:showpageshadow="2"
     inkscape:pageopacity="0.0"
     inkscape:pagecheckerboard="0"
     inkscape:deskcolor="#d1d1d1"
     showgrid="false"
     inkscape:zoom="1.633482"
     inkscape:cx="212.73574"
     inkscape:cy="85.706484"
     inkscape:window-width="1920"
     inkscape:window-height="1055"
     inkscape:window-x="0"
     inkscape:window-y="0"
     inkscape:window-maximized="1"
     inkscape:current-layer="g10254">
    <inkscape:page
       x="0"
       y="0"
       id="page10252"
       width="267.60556"
       height="93.891998" />
  </sodipodi:namedview>
  <g
     id="g10254"
     inkscape:groupmode="layer"
     inkscape:label="Page 1"
     transform="matrix(1.3333333,0,0,-1.3333333,-44.190932,137.20333)">
    <g
       id="g10256">
      <g
         id="g10258"
         clip-path="url(#clipPath10262)">
        <g
           id="g10264"
           transform="translate(123.4639,62.7623)">
          <path
             d="m 0,0 h -2.399 v 1.543 h -0.043 c -0.6,-1.114 -1.929,-1.843 -3.15,-1.843 -2.892,0 -4.135,1.457 -4.135,4.349 v 7.027 h 2.443 V 4.285 c 0,-1.95 0.793,-2.657 2.121,-2.657 2.035,0 2.721,1.307 2.721,3.021 v 6.427 H 0 Z"
             style="fill:#adafaf;fill-opacity:1;fill-rule:nonzero;stroke:none"
             id="path10266" />
        </g>
        <g
           id="g10268"
           transform="translate(125.6084,73.838)">
          <path
             d="M 0,0 H 2.314 V -1.628 L 2.357,-1.671 C 3.085,-0.45 4.349,0.3 5.806,0.3 c 2.4,0 3.921,-1.285 3.921,-3.77 v -7.606 H 7.284 v 6.963 c -0.043,1.735 -0.728,2.485 -2.163,2.485 -1.629,0 -2.679,-1.286 -2.679,-2.914 v -6.534 H 0 Z"
             style="fill:#adafaf;fill-opacity:1;fill-rule:nonzero;stroke:none"
             id="path10270" />
        </g>
        <path
           d="m 137.544,73.838 h 2.442 V 62.762 h -2.442 z m 0,4.221 h 2.442 v -2.314 h -2.442 z"
           style="fill:#adafaf;fill-opacity:1;fill-rule:nonzero;stroke:none"
           id="path10272" />
        <g
           id="g10274"
           transform="translate(141.123,73.838)">
          <path
             d="M 0,0 H 2.656 L 5.463,-8.505 H 5.506 L 8.205,0 h 2.528 L 6.77,-11.076 H 4.027 Z"
             style="fill:#adafaf;fill-opacity:1;fill-rule:nonzero;stroke:none"
             id="path10276" />
        </g>
        <g
           id="g10278"
           transform="translate(160.5137,69.275)">
          <path
             d="M 0,0 C -0.085,1.542 -1.135,2.935 -2.785,2.935 -4.478,2.935 -5.634,1.649 -5.699,0 Z m -5.699,-1.607 c 0,-1.735 0.943,-3.278 2.978,-3.278 1.414,0 2.271,0.621 2.7,1.843 H 2.292 C 1.757,-5.463 -0.3,-6.813 -2.721,-6.813 c -3.47,0 -5.42,2.421 -5.42,5.828 0,3.149 2.057,5.848 5.356,5.848 3.492,0 5.635,-3.149 5.227,-6.47 z"
             style="fill:#adafaf;fill-opacity:1;fill-rule:nonzero;stroke:none"
             id="path10280" />
        </g>
        <g
           id="g10282"
           transform="translate(164.3945,73.838)">
          <path
             d="M 0,0 H 2.292 V -2.142 H 2.335 C 2.613,-0.964 4.07,0.3 5.57,0.3 6.127,0.3 6.277,0.257 6.491,0.236 v -2.357 c -0.343,0.043 -0.707,0.107 -1.05,0.107 -1.67,0 -2.999,-1.349 -2.999,-3.792 v -5.27 H 0 Z"
             style="fill:#adafaf;fill-opacity:1;fill-rule:nonzero;stroke:none"
             id="path10284" />
        </g>
        <g
           id="g10286"
           transform="translate(173.3511,66.319)">
          <path
             d="m 0,0 c 0.128,-1.414 1.2,-1.929 2.506,-1.929 0.922,0 2.528,0.194 2.464,1.457 -0.064,1.285 -1.843,1.436 -3.62,1.843 -1.8,0.385 -3.557,1.028 -3.557,3.277 0,2.421 2.614,3.171 4.628,3.171 2.27,0 4.327,-0.943 4.627,-3.406 H 4.499 C 4.285,5.57 3.32,5.891 2.25,5.891 1.542,5.891 0.235,5.72 0.235,4.756 c 0,-1.2 1.8,-1.371 3.599,-1.778 1.779,-0.408 3.579,-1.05 3.579,-3.236 0,-2.635 -2.657,-3.598 -4.95,-3.598 -2.784,0 -4.862,1.242 -4.905,3.856 z"
             style="fill:#adafaf;fill-opacity:1;fill-rule:nonzero;stroke:none"
             id="path10288" />
        </g>
        <path
           d="m 182.266,73.838 h 2.442 V 62.762 h -2.442 z m 0,4.221 h 2.442 v -2.314 h -2.442 z"
           style="fill:#adafaf;fill-opacity:1;fill-rule:nonzero;stroke:none"
           id="path10290" />
        <g
           id="g10292"
           transform="translate(191.9072,64.3903)">
          <path
             d="M 0,0 C 2.185,0 3.106,1.992 3.106,3.921 3.106,6.363 1.928,7.82 0.042,7.82 -2.25,7.82 -3.064,5.785 -3.064,3.792 -3.064,1.886 -2.121,0 0,0 M 5.463,-1.628 H 3.149 v 1.5 H 3.106 c -0.643,-1.265 -2.035,-1.8 -3.428,-1.8 -3.491,0 -5.184,2.592 -5.184,5.913 0,4.006 2.378,5.763 4.799,5.763 1.393,0 2.935,-0.514 3.685,-1.735 h 0.043 v 5.655 h 2.442 z"
             style="fill:#adafaf;fill-opacity:1;fill-rule:nonzero;stroke:none"
             id="path10294" />
        </g>
        <g
           id="g10296"
           transform="translate(206.4355,68.3112)">
          <path
             d="m 0,0 c -0.75,-0.493 -1.928,-0.472 -3,-0.664 -1.049,-0.172 -1.992,-0.557 -1.992,-1.843 0,-1.093 1.393,-1.414 2.25,-1.414 1.071,0 2.742,0.558 2.742,2.1 z m 2.442,-3.085 c 0,-0.6 0.129,-0.836 0.579,-0.836 0.149,0 0.342,0 0.599,0.043 V -5.57 C 3.256,-5.699 2.485,-5.849 2.078,-5.849 c -0.986,0 -1.693,0.343 -1.886,1.35 -0.963,-0.942 -2.527,-1.35 -3.834,-1.35 -1.993,0 -3.792,1.072 -3.792,3.235 0,2.764 2.206,3.214 4.263,3.449 1.757,0.322 3.321,0.129 3.321,1.564 0,1.264 -1.307,1.5 -2.293,1.5 -1.371,0 -2.335,-0.557 -2.442,-1.757 h -2.442 c 0.172,2.849 2.592,3.685 5.034,3.685 2.164,0 4.435,-0.878 4.435,-3.214 z"
             style="fill:#adafaf;fill-opacity:1;fill-rule:nonzero;stroke:none"
             id="path10298" />
        </g>
        <g
           id="g10300"
           transform="translate(216.0566,64.3903)">
          <path
             d="M 0,0 C 2.186,0 3.106,1.992 3.106,3.921 3.106,6.363 1.928,7.82 0.043,7.82 -2.249,7.82 -3.063,5.785 -3.063,3.792 -3.063,1.886 -2.121,0 0,0 M 5.463,-1.628 H 3.149 v 1.5 H 3.106 c -0.642,-1.265 -2.035,-1.8 -3.427,-1.8 -3.492,0 -5.184,2.592 -5.184,5.913 0,4.006 2.378,5.763 4.798,5.763 1.393,0 2.936,-0.514 3.685,-1.735 h 0.043 v 5.655 h 2.442 z"
             style="fill:#adafaf;fill-opacity:1;fill-rule:nonzero;stroke:none"
             id="path10302" />
        </g>
        <g
           id="g10304"
           transform="translate(231.356,69.275)">
          <path
             d="M 0,0 C -0.085,1.542 -1.135,2.935 -2.785,2.935 -4.478,2.935 -5.634,1.649 -5.699,0 Z m -5.699,-1.607 c 0,-1.735 0.943,-3.278 2.978,-3.278 1.414,0 2.271,0.621 2.7,1.843 H 2.292 C 1.757,-5.463 -0.3,-6.813 -2.721,-6.813 c -3.47,0 -5.42,2.421 -5.42,5.828 0,3.149 2.057,5.848 5.356,5.848 3.492,0 5.634,-3.149 5.227,-6.47 z"
             style="fill:#adafaf;fill-opacity:1;fill-rule:nonzero;stroke:none"
             id="path10306" />
        </g>
        <g
           id="g10308"
           transform="translate(118.708,43.1598)">
          <path
             d="m 0,0 c 2.185,0 3.106,1.992 3.106,3.921 0,2.442 -1.178,3.898 -3.064,3.898 -2.292,0 -3.106,-2.035 -3.106,-4.027 C -3.064,1.886 -2.121,0 0,0 M 5.463,-1.628 H 3.149 v 1.5 H 3.106 c -0.643,-1.265 -2.035,-1.8 -3.428,-1.8 -3.491,0 -5.184,2.592 -5.184,5.913 0,4.006 2.378,5.763 4.799,5.763 1.393,0 2.935,-0.515 3.685,-1.735 h 0.043 v 5.655 h 2.442 z"
             style="fill:#adafaf;fill-opacity:1;fill-rule:nonzero;stroke:none"
             id="path10310" />
        </g>
        <g
           id="g10312"
           transform="translate(134.0068,48.0445)">
          <path
             d="M 0,0 C -0.085,1.542 -1.135,2.935 -2.785,2.935 -4.478,2.935 -5.634,1.649 -5.699,0 Z m -5.699,-1.606 c 0,-1.736 0.943,-3.279 2.978,-3.279 1.414,0 2.271,0.621 2.7,1.843 h 2.313 c -0.535,-2.421 -2.592,-3.77 -5.013,-3.77 -3.47,0 -5.42,2.42 -5.42,5.827 0,3.149 2.057,5.848 5.356,5.848 3.492,0 5.635,-3.149 5.227,-6.469 z"
             style="fill:#adafaf;fill-opacity:1;fill-rule:nonzero;stroke:none"
             id="path10314" />
        </g>
        <g
           id="g10316"
           transform="translate(150.25,47.0807)">
          <path
             d="m 0,0 c -0.75,-0.493 -1.928,-0.472 -3,-0.664 -1.049,-0.172 -1.992,-0.558 -1.992,-1.843 0,-1.093 1.393,-1.414 2.25,-1.414 1.071,0 2.742,0.558 2.742,2.1 z m 2.442,-3.085 c 0,-0.6 0.129,-0.836 0.579,-0.836 0.149,0 0.342,0 0.599,0.043 V -5.57 C 3.256,-5.699 2.485,-5.849 2.078,-5.849 c -0.986,0 -1.693,0.343 -1.886,1.35 -0.963,-0.942 -2.527,-1.35 -3.834,-1.35 -1.993,0 -3.792,1.072 -3.792,3.235 0,2.763 2.206,3.214 4.263,3.449 1.757,0.321 3.321,0.129 3.321,1.564 0,1.264 -1.307,1.499 -2.293,1.499 -1.371,0 -2.335,-0.556 -2.442,-1.755 h -2.442 c 0.172,2.848 2.592,3.684 5.034,3.684 2.164,0 4.435,-0.879 4.435,-3.214 z"
             style="fill:#adafaf;fill-opacity:1;fill-rule:nonzero;stroke:none"
             id="path10318" />
        </g>
        <g
           id="g10320"
           transform="translate(153.8086,52.608)">
          <path
             d="M 0,0 H 2.656 L 5.463,-8.506 H 5.506 L 8.205,0 h 2.528 L 6.77,-11.076 H 4.027 Z"
             style="fill:#adafaf;fill-opacity:1;fill-rule:nonzero;stroke:none"
             id="path10322" />
        </g>
        <g
           id="g10324"
           transform="translate(173.1992,48.0445)">
          <path
             d="M 0,0 C -0.085,1.542 -1.135,2.935 -2.785,2.935 -4.478,2.935 -5.634,1.649 -5.699,0 Z m -5.699,-1.606 c 0,-1.736 0.943,-3.279 2.978,-3.279 1.414,0 2.271,0.621 2.7,1.843 h 2.313 c -0.535,-2.421 -2.592,-3.77 -5.013,-3.77 -3.47,0 -5.42,2.42 -5.42,5.827 0,3.149 2.057,5.848 5.356,5.848 3.492,0 5.635,-3.149 5.227,-6.469 z"
             style="fill:#adafaf;fill-opacity:1;fill-rule:nonzero;stroke:none"
             id="path10326" />
        </g>
        <path
           d="m 177.145,52.608 h 2.442 V 41.532 h -2.442 z m 0,4.22 h 2.442 v -2.313 h -2.442 z"
           style="fill:#adafaf;fill-opacity:1;fill-rule:nonzero;stroke:none"
           id="path10328" />
        <g
           id="g10330"
           transform="translate(181.8154,52.608)">
          <path
             d="M 0,0 H 2.292 V -2.143 H 2.335 C 2.614,-0.965 4.071,0.3 5.57,0.3 6.127,0.3 6.277,0.257 6.492,0.235 v -2.356 c -0.343,0.043 -0.707,0.107 -1.05,0.107 -1.671,0 -3,-1.349 -3,-3.792 v -5.27 H 0 Z"
             style="fill:#adafaf;fill-opacity:1;fill-rule:nonzero;stroke:none"
             id="path10332" />
        </g>
        <g
           id="g10334"
           transform="translate(196.7705,47.0807)">
          <path
             d="m 0,0 c 0,1.906 -0.964,3.898 -3.149,3.898 -2.185,0 -3.149,-1.992 -3.149,-3.898 0,-1.929 0.964,-3.921 3.149,-3.921 C -0.964,-3.921 0,-1.929 0,0 m -8.74,0 c 0,3.385 2.035,5.827 5.591,5.827 3.556,0 5.591,-2.442 5.591,-5.827 0,-3.406 -2.035,-5.849 -5.591,-5.849 -3.556,0 -5.591,2.443 -5.591,5.849"
             style="fill:#adafaf;fill-opacity:1;fill-rule:nonzero;stroke:none"
             id="path10336" />
        </g>
        <g
           id="g10338"
           transform="translate(89.9302,43.1725)">
          <path
             d="m 0,0 c 0,-0.807 -0.686,-1.467 -1.518,-1.467 l -12.673,0.005 c -2.473,0 -4.618,-1.364 -5.824,-3.528 -0.504,-0.868 -1.463,-1.455 -2.555,-1.455 h -1.1 c -1.097,0 -2.055,0.587 -2.687,1.617 -1.074,2.002 -3.224,3.366 -5.692,3.366 h -13.73 c -0.832,0 -1.521,0.659 -1.521,1.467 l 0.007,18.094 c 0,0.808 0.606,1.512 1.438,1.512 h 13.806 c 2.468,0 4.618,-1.366 5.823,-3.531 0.501,-0.865 1.459,-1.453 2.556,-1.453 h 1.1 c 1.092,0 2.051,0.588 2.683,1.615 1.078,2.003 3.223,3.369 5.696,3.369 l 12.742,-0.009 c 0.824,0 1.47,-0.657 1.47,-1.467 z m 9.497,44.942 c 0,4.647 -3.257,8.492 -7.896,9.168 -0.134,0.022 -0.276,0.033 -0.414,0.033 -0.85,0 -1.604,-0.392 -2.087,-1.003 l -7.083,-8.622 c -1.046,-1.016 -2.484,-1.637 -4.066,-1.637 -3.199,0 -5.842,2.536 -5.842,5.667 0,5.942 -4.607,10.705 -10.546,11.182 -0.57,0 -1.017,-0.446 -1.017,-1.007 l -0.006,-7.246 0.006,-2.929 c 0,-3.131 -2.541,-5.667 -5.732,-5.667 -1.583,0 -3.067,0.621 -4.117,1.637 l -7.083,8.622 c -0.489,0.611 -1.241,1.003 -2.091,1.003 -0.138,0 -0.272,-0.011 -0.406,-0.033 -4.647,-0.676 -7.9,-4.521 -7.9,-9.168 l -0.004,-46.351 c 0,-5.125 4.245,-9.28 9.472,-9.28 H 0.029 c 5.228,0 9.471,4.155 9.471,9.28 z"
             style="fill:#92d400;fill-opacity:1;fill-rule:evenodd;stroke:none"
             id="path10340" />
        </g>
      </g>
    </g>
  </g>
</svg>
